…
```r
# install.packages("readxl")
library(readxl)
inmet_estacoes <- read_excel(
  path = dest_file_excel,
  col_names = TRUE, 
  skip = 3)
inmet_estacoes
#> # A tibble: 437 x 10
#>       Nº Código `Nome da Estação`   UF    Latitude Longitude Atitude
#>    <dbl>  <dbl> <chr>               <chr>    <dbl>     <dbl>   <dbl>
#>  1  1.00  82704 CRUZEIRO DO SUL     AC       -7.60     -72.7   170  
#>  2  2.00  82915 RIO BRANCO          AC       -9.95     -67.9   160  
#>  3  3.00  82807 TARAUACA            AC       -8.17     -70.8   190  
#>  4  4.00  82989 AGUA BRANCA         AL       -9.28     -37.9   605  
#>  5  5.00  82995 ARAPIRACA           AL       -9.73     -36.8   247  
#>  6  6.00  82994 MACEIO              AL       -9.67     -35.7    64.5
#>  7  7.00  82991 MAJOR ISIDORO       AL       -9.55     -37.0   200  
#>  8  8.00  82988 MATA GRANDE         AL       -9.12     -37.7   635  
#>  9  9.00  82992 PALMEIRA DOS INDIOS AL       -9.45     -36.7   275  
#> 10 10.0   82990 PAO DE ACUCAR       AL       -9.75     -37.4    19.1
#> # ... with 427 more rows, and 3 more variables: `Inicio Operação` <chr>,
#> #   `Fim Operação` <dttm>, Situação <chr>
…
