…
As demais colunas dos dados (`site` e `ano`) serão mantidas inalteradas e seus valores serão repetidos quando necessário.

Como em outras funções do *tiverse* você perceberá que os argumentos **não são especificados como caracteres** e sim como nomes, como aqueles usados quando definimos variáveis (p.ex.: `nome_var <- 10`). Os argumentos `key` e `value` podem ser especificados à gosto do usuário e não precisam ter relação com os dados existentes.

Se nós desejássemos que todas colunas do *data frame* fossem reunidas em uma nova coluna `atributo` e os seus valores em uma nova coluna `valor`, isso poderia ser feito simplesmente sem especificar `prec, intensidade` no trecho de código anterior. A tabela de dados resultante conterá todos os 32 pares (variável/observação) de valores dos dados originais com 4 colunas por 8 linhas:


```r
meteo_longo <- gather(
  meteo_tbl, 
  key = atributo,
  value = valor
)
meteo_longo
#> # A tibble: 32 x 2
#>    atributo valor
#>    <chr>    <chr>
#>  1 site     A001 
#>  2 site     A001 
#>  3 site     A002 
#>  4 site     A002 
#>  5 site     A002 
#>  6 site     A003 
#>  7 site     A803 
#>  8 site     A803 
#>  9 ano      2000 
#> 10 ano      2001 
#> # ... with 22 more rows
```

Se não forem especificados nomes para os argumentos `key` e `value` na chamada da função gather, serão atribuídos os valores *default*.


```r
gather(meteo_tbl)
#> # A tibble: 32 x 2
#>    key   value
#>    <chr> <chr>
#>  1 site  A001 
#>  2 site  A001 
#>  3 site  A002 
#>  4 site  A002 
#>  5 site  A002 
#>  6 site  A003 
#>  7 site  A803 
#>  8 site  A803 
#>  9 ano   2000 
#> 10 ano   2001 
#> # ... with 22 more rows
```
…
#>   site  ano prec
#> 1 A001 2000 1800
#> 2 A001 2001 1400
#> 3 A002 2000 1750
#> 4 A002 2001 1470
#> 5 A002 2002 1630
#> 6 A003 2004 1300
#> 7 A803 2005 1950
#> 8 A803 2006 1100
meteo_comp <- complete(
  meteo_df,
  site, ano
)
meteo_comp
#> # A tibble: 24 x 3
#>    site    ano  prec
#>    <fct> <dbl> <dbl>
#>  1 A001  2000. 1800.
#>  2 A001  2001. 1400.
#>  3 A001  2002.   NA 
#>  4 A001  2004.   NA 
#>  5 A001  2005.   NA 
#>  6 A001  2006.   NA 
#>  7 A002  2000. 1750.
#>  8 A002  2001. 1470.
#>  9 A002  2002. 1630.
#> 10 A002  2004.   NA 
#> # ... with 14 more rows
```
…
Conversão para `tibble` e atribuição de dados faltantes:


```r
hprec <- as_tibble(hprec) %>%
  mutate(prec = ifelse(prec < 0, NA, prec))
hprec
#> # A tibble: 96,428 x 3
#>    site  date                 prec
#>    <chr> <chr>               <dbl>
#>  1 A803  2004-01-01 00:00:00    0.
#>  2 A803  2004-01-01 01:00:00    0.
#>  3 A803  2004-01-01 02:00:00    0.
#>  4 A803  2004-01-01 03:00:00    0.
#>  5 A803  2004-01-01 04:00:00    0.
#>  6 A803  2004-01-01 05:00:00    0.
#>  7 A803  2004-01-01 06:00:00    0.
#>  8 A803  2004-01-01 07:00:00    0.
#>  9 A803  2004-01-01 08:00:00    0.
#> 10 A803  2004-01-01 09:00:00    0.
#> # ... with 96,418 more rows
…
  (a) Determine a frequência de ocorrência de chuva (ou seja, o número de casos em que choveu) para cada hora do dia (das 0 às 23 h). Apresente os resultados na forma de um gráfico de barras com a frequência de ocorrência de chuva (eixo y, em %)  em cada hora (eixo x). Descreva se há algum padrão no gráfico? Chove mais de dia ou à noite?


```r
tab_h <-
group_by(filter(hprec, !is.na(prec)), 
         hour = lubridate::hour(date)) %>%
  summarise(n_h = sum(prec > 0)
            #N = n()
            ) %>%
  mutate(n_h_perc = round(n_h/sum(n_h) * 100, 2)
         #n_h_perc_all = round((n_h/sum(N)) * 100, 2)
         )
tab_h
#> # A tibble: 24 x 3
#>     hour   n_h n_h_perc
#>    <int> <int>    <dbl>
#>  1     0   304     3.89
#>  2     1   290     3.71
#>  3     2   319     4.08
#>  4     3   334     4.27
#>  5     4   365     4.67
#>  6     5   399     5.11
#>  7     6   400     5.12
#>  8     7   405     5.18
#>  9     8   370     4.73
#> 10     9   340     4.35
#> # ... with 14 more rows
```
…
