…
x1 <- seq(
  from = -100,
  to = 100,
  by = 0.05
)
A <- seq(
  from = -1,
  to = 1,
  length.out = length(x1)
) %>%
  sin(x = .)
y1 <- exp(-0.07 * A * x1) * cos(x1 + pi / 2)
dados <- tibble(x1, y1)
dados
#> # A tibble: 4,001 x 2
#>        x1       y1
#>     <dbl>    <dbl>
#>  1 -100   -0.00140
#>  2 -100.  -0.00153
#>  3  -99.9 -0.00165
#>  4  -99.8 -0.00177
#>  5  -99.8 -0.00188
#>  6  -99.8 -0.00199
#>  7  -99.7 -0.00210
#>  8  -99.6 -0.00221
#>  9  -99.6 -0.00231
#> 10  -99.6 -0.00240
#> # … with 3,991 more rows
```
…
