Análise de Dados Ambientais com R
…
..., lista com o nome das variáveis, no código acima corresponde à prec, intensidade que é uma funcionalidade para seleção de variáveis do pacote dplyr que significa a seleção das variáveis compreendidas entre a coluna prec e intensidade

As demais colunas dos dados (site e ano) serão mantidas inalteradas e seus valores serão repetidos quando necessário.

Como em outras funções do tiverse você perceberá que os argumentos não são especificados como caracteres e sim como nomes, como aqueles usados quando definimos variáveis (p.ex.: nome_var <- 10). Os argumentos key e value podem ser especificados à gosto do usuário e não precisam ter relação com os dados existentes.

Se nós desejássemos que todas colunas do data frame fossem reunidas em uma nova coluna atributo e os seus valores em uma nova coluna valor, isso poderia ser feito simplesmente sem especificar prec, intensidade no trecho de código anterior. A tabela de dados resultante conterá todos os 32 pares (variável/observação) de valores dos dados originais com 4 colunas por 8 linhas:

meteo_longo <- gather(
  meteo_tbl, 
  key = atributo,
  value = valor
)
meteo_longo
#> # A tibble: 32 x 2
#>    atributo valor
#>    <chr>    <chr>
#>  1 site     A001 
#>  2 site     A001 
#>  3 site     A002 
#>  4 site     A002 
#>  5 site     A002 
#>  6 site     A003 
#>  7 site     A803 
#>  8 site     A803 
#>  9 ano      2000 
#> 10 ano      2001 
#> # ... with 22 more rows

Se não forem especificados nomes para os argumentos key e value na chamada da função gather, serão atribuídos os valores default.

gather(meteo_tbl)
#> # A tibble: 32 x 2
#>    key   value
#>    <chr> <chr>
#>  1 site  A001 
#>  2 site  A001 
#>  3 site  A002 
#>  4 site  A002 
#>  5 site  A002 
#>  6 site  A003 
#>  7 site  A803 
#>  8 site  A803 
#>  9 ano   2000 
#> 10 ano   2001 
#> # ... with 22 more rows
…
#>   site  ano prec
#> 1 A001 2000 1800
#> 2 A001 2001 1400
#> 3 A002 2000 1750
#> 4 A002 2001 1470
#> 5 A002 2002 1630
#> 6 A003 2004 1300
#> 7 A803 2005 1950
#> 8 A803 2006 1100
meteo_comp <- complete(
  meteo_df,
  site, ano
)
meteo_comp
#> # A tibble: 24 x 3
#>    site    ano  prec
#>    <fct> <dbl> <dbl>
#>  1 A001   2000  1800
#>  2 A001   2001  1400
#>  3 A001   2002    NA
#>  4 A001   2004    NA
#>  5 A001   2005    NA
#>  6 A001   2006    NA
#>  7 A002   2000  1750
#>  8 A002   2001  1470
#>  9 A002   2002  1630
#> 10 A002   2004    NA
#> # ... with 14 more rows
…
