…
Para restaurar as opções *default* use:


```r
options(
  tibble.print_max = NULL,
  tibble.print_min = NULL
)
clima_rs_tbl
#> # A tibble: 23 x 5
#>    codigo estacao             uf     prec  tmax
#>  * <chr>  <chr>               <chr> <dbl> <dbl>
#>  1 83931  Alegrete            RS    1492.  25.4
#>  2 83980  Bagé                RS    1300.  24.1
#>  3 83941  Bento Gonçalves     RS    1684.  23  
#>  4 83919  Bom Jesus           RS    1807.  20.3
#>  5 83963  Cachoeira do Sul    RS    1477.  25.1
#>  6 83942  Caxias do Sul       RS    1823   21.8
#>  7 83912  Cruz Alta           RS    1631.  24.5
#>  8 83964  Encruzilhada do Sul RS    1511.  22.5
#>  9 83915  Guaporé             RS    1759.  24.7
#> 10 83881  Iraí                RS    1807.  27.1
#> # ... with 13 more rows
```
…
As demais colunas dos dados (`site` e `ano`) serão mantidas inalteradas e seus valores serão repetidos quando necessário.

Como em outras funções dos pacotes do **tidyverse** você perceberá que os argumentos **não são especificados como caracteres** e sim como nomes (ou seja o nome da variável sem aspas), como aqueles usados quando definimos variáveis (p.ex.: `nome_var <- 10`). Os argumentos `key` e `value` podem ser especificados à gosto do usuário e não precisam ter relação com os dados existentes.

Se nós desejássemos que todas colunas do *data frame* fossem reunidas em uma nova coluna `atributo` e os seus valores em uma nova coluna `valor`, isso poderia ser feito simplesmente sem especificar variáveis de interesse (`prec, intensidade`) no trecho de código anterior. A tabela de dados resultante conterá todos os 32 pares de valores, formados pelas 4 colunas por 8 linhas, dos dados originais:


```r
prec_anual_longo <- gather(
  prec_anual_tbl, 
  key = atributo,
  value = valor
)
prec_anual_longo
#> # A tibble: 32 x 2
#>    atributo valor
#>    <chr>    <chr>
#>  1 site     A001 
#>  2 site     A001 
#>  3 site     A002 
#>  4 site     A002 
#>  5 site     A002 
#>  6 site     A003 
#>  7 site     A803 
#>  8 site     A803 
#>  9 ano      2000 
#> 10 ano      2001 
#> # ... with 22 more rows
```

Se não forem especificados nomes para os argumentos `key` e `value` na chamada da função gather, serão atribuídos os valores *default*: `key` e `value`.


```r
gather(prec_anual_tbl)
#> # A tibble: 32 x 2
#>    key   value
#>    <chr> <chr>
#>  1 site  A001 
#>  2 site  A001 
#>  3 site  A002 
#>  4 site  A002 
#>  5 site  A002 
#>  6 site  A003 
#>  7 site  A803 
#>  8 site  A803 
#>  9 ano   2000 
#> 10 ano   2001 
#> # ... with 22 more rows
```
…
#>   site  ano prec
#> 1 A001 2000 1800
#> 2 A001 2001 1400
#> 3 A002 2000 1750
#> 4 A002 2001 1470
#> 5 A002 2002 1630
#> 6 A003 2004 1300
#> 7 A803 2005 1950
#> 8 A803 2006 1100
prec_anual_comp <- complete(
  prec_anual,
  site, ano
)
prec_anual_comp
#> # A tibble: 24 x 3
#>    site    ano  prec
#>    <fct> <dbl> <dbl>
#>  1 A001   2000  1800
#>  2 A001   2001  1400
#>  3 A001   2002    NA
#>  4 A001   2004    NA
#>  5 A001   2005    NA
#>  6 A001   2006    NA
#>  7 A002   2000  1750
#>  8 A002   2001  1470
#>  9 A002   2002  1630
#> 10 A002   2004    NA
#> # ... with 14 more rows
```
…
### Seleção de variáveis 

<img src="images/dplyr-select.png" width="20%" height="20%" style="display: block; margin: auto;" />

Para selecionar somente variáveis de interesse em uma tabela de dados podemos usar a função `dplyr::select()`. Nos dados `clima_rs_tbl` se desejamos selecionar apenas as colunas `estacao` e `tmax` aplicamos a `select()` da seguinte forma:


```r
select(clima_rs_tbl, estacao, tmax)
#> # A tibble: 23 x 2
#>    estacao              tmax
#>  * <chr>               <dbl>
#>  1 Alegrete             25.4
#>  2 Bagé                 24.1
#>  3 Bento Gonçalves      23  
#>  4 Bom Jesus            20.3
#>  5 Cachoeira do Sul     25.1
#>  6 Caxias do Sul        21.8
#>  7 Cruz Alta            24.5
#>  8 Encruzilhada do Sul  22.5
#>  9 Guaporé              24.7
#> 10 Iraí                 27.1
#> # ... with 13 more rows
```
…
Conversão para `tibble` e atribuição de dados faltantes:


```r
hprec <- as_tibble(hprec) %>%
  mutate(prec = ifelse(prec < 0, NA, prec))
hprec
#> # A tibble: 96,428 x 3
#>    site  date                 prec
#>    <chr> <chr>               <dbl>
#>  1 A803  2004-01-01 00:00:00     0
#>  2 A803  2004-01-01 01:00:00     0
#>  3 A803  2004-01-01 02:00:00     0
#>  4 A803  2004-01-01 03:00:00     0
#>  5 A803  2004-01-01 04:00:00     0
#>  6 A803  2004-01-01 05:00:00     0
#>  7 A803  2004-01-01 06:00:00     0
#>  8 A803  2004-01-01 07:00:00     0
#>  9 A803  2004-01-01 08:00:00     0
#> 10 A803  2004-01-01 09:00:00     0
#> # ... with 96,418 more rows
…
  (a) Determine a frequência de ocorrência de chuva (ou seja, o número de casos em que choveu) para cada hora do dia (das 0 às 23 h). Apresente os resultados na forma de um gráfico de barras com a frequência de ocorrência de chuva (eixo y, em %)  em cada hora (eixo x). Descreva se há algum padrão no gráfico? Chove mais de dia ou à noite?


```r
tab_h <-
group_by(filter(hprec, !is.na(prec)), 
         hour = lubridate::hour(date)) %>%
  summarise(n_h = sum(prec > 0)
            #N = n()
            ) %>%
  mutate(n_h_perc = round(n_h/sum(n_h) * 100, 2)
         #n_h_perc_all = round((n_h/sum(N)) * 100, 2)
         )
tab_h
#> # A tibble: 24 x 3
#>     hour   n_h n_h_perc
#>    <int> <int>    <dbl>
#>  1     0   304     3.89
#>  2     1   290     3.71
#>  3     2   319     4.08
#>  4     3   334     4.27
#>  5     4   365     4.67
#>  6     5   399     5.11
#>  7     6   400     5.12
#>  8     7   405     5.18
#>  9     8   370     4.73
#> 10     9   340     4.35
#> # ... with 14 more rows
```
…
