Análise de Dados Ambientais com R
…
Conversão para tibble e atribuição de dados faltantes:

hprec <- as_tibble(hprec) %>%
  mutate(prec = ifelse(prec < 0, NA, prec))
hprec
#> # A tibble: 96,428 x 3
#>    site  date                 prec
#>    <chr> <chr>               <dbl>
#>  1 A803  2004-01-01 00:00:00     0
#>  2 A803  2004-01-01 01:00:00     0
#>  3 A803  2004-01-01 02:00:00     0
#>  4 A803  2004-01-01 03:00:00     0
#>  5 A803  2004-01-01 04:00:00     0
#>  6 A803  2004-01-01 05:00:00     0
#>  7 A803  2004-01-01 06:00:00     0
#>  8 A803  2004-01-01 07:00:00     0
#>  9 A803  2004-01-01 08:00:00     0
#> 10 A803  2004-01-01 09:00:00     0
#> # ... with 96,418 more rows
…
5. Frequência de ocorrência de chuva horária.

Determine a frequência de ocorrência de chuva (ou seja, o número de casos em que choveu) para cada hora do dia (das 0 às 23 h). Apresente os resultados na forma de um gráfico de barras com a frequência de ocorrência de chuva (eixo y, em %) em cada hora (eixo x). Descreva se há algum padrão no gráfico? Chove mais de dia ou à noite?

tab_h <-
group_by(filter(hprec, !is.na(prec)), 
         hour = lubridate::hour(date)) %>%
  summarise(n_h = sum(prec > 0)
            #N = n()
            ) %>%
  mutate(n_h_perc = round(n_h/sum(n_h) * 100, 2)
         #n_h_perc_all = round((n_h/sum(N)) * 100, 2)
         )
tab_h
#> # A tibble: 24 x 3
#>     hour   n_h n_h_perc
#>    <int> <int>    <dbl>
#>  1     0   304     3.89
#>  2     1   290     3.71
#>  3     2   319     4.08
#>  4     3   334     4.27
#>  5     4   365     4.67
#>  6     5   399     5.11
#>  7     6   400     5.12
#>  8     7   405     5.18
#>  9     8   370     4.73
#> 10     9   340     4.35
#> # ... with 14 more rows
…
