Análise de Dados Ambientais com R
…
Para selecionar somente variáveis de interesse em uma tabela de dados podemos usar a função dplyr::select(.data, ...). Nos dados clima_rs_tbl se desejamos selecionar apenas as colunas estacao e tmax aplicamos a dplyr::select() com o 2° argumento listando as colunas que desejamos selecionar:

select(clima_rs_tbl, estacao, tmax)
#> # A tibble: 23 x 2
#>    estacao              tmax
#>  * <chr>               <dbl>
#>  1 Alegrete             25.4
#>  2 Bagé                 24.1
#>  3 Bento Gonçalves      23  
#>  4 Bom Jesus            20.3
#>  5 Cachoeira do Sul     25.1
#>  6 Caxias do Sul        21.8
#>  7 Cruz Alta            24.5
#>  8 Encruzilhada do Sul  22.5
#>  9 Guaporé              24.7
#> 10 Iraí                 27.1
#> # ... with 13 more rows
…
Podemos preencher os valores faltantes de uma variável por um valor prescrito, por exemplo baseado na média de outras observações, ou nos valores prévios, ou posteriores. Variáveis podem ser derivadas das variáveis sendo criadas dentro da dplyr::mutate().

# preenchendo prec faltante pela média
prec_anual_comp %>%
  mutate(., 
         prec = replace_na(prec,
                           mean(prec, na.rm = TRUE)
                           ),
         ndias = ifelse(ano %% 4 == 0, 
                      366, 
                      365),
         # intensidade de ndias, criada na linha acima
         intensidade = prec / ndias
         )
#> # A tibble: 24 x 5
#>    site    ano  prec ndias intensidade
#>    <fct> <dbl> <dbl> <dbl>       <dbl>
#>  1 A001   2000  1800   366        4.92
#>  2 A001   2001  1400   365        3.84
#>  3 A001   2002  1550   365        4.25
#>  4 A001   2004  1550   366        4.23
#>  5 A001   2005  1550   365        4.25
#>  6 A001   2006  1550   365        4.25
#>  7 A002   2000  1750   366        4.78
#>  8 A002   2001  1470   365        4.03
#>  9 A002   2002  1630   365        4.47
#> 10 A002   2004  1550   366        4.23
#> # ... with 14 more rows

prec_anual_comp %>%
  # preenche com  a observação prévia
  fill(prec, .direction = "down")
#> # A tibble: 24 x 3
#>    site    ano  prec
#>    <fct> <dbl> <dbl>
#>  1 A001   2000  1800
#>  2 A001   2001  1400
#>  3 A001   2002  1400
#>  4 A001   2004  1400
#>  5 A001   2005  1400
#>  6 A001   2006  1400
#>  7 A002   2000  1750
#>  8 A002   2001  1470
#>  9 A002   2002  1630
#> 10 A002   2004  1630
#> # ... with 14 more rows

prec_anual_comp %>%
  # preenche com  a observação posterior
  fill(prec, .direction = "up")
#> # A tibble: 24 x 3
#>    site    ano  prec
#>    <fct> <dbl> <dbl>
#>  1 A001   2000  1800
#>  2 A001   2001  1400
#>  3 A001   2002  1750
#>  4 A001   2004  1750
#>  5 A001   2005  1750
#>  6 A001   2006  1750
#>  7 A002   2000  1750
#>  8 A002   2001  1470
#>  9 A002   2002  1630
#> 10 A002   2004  1300
#> # ... with 14 more rows
…
Observações repetidas devem ser removidas dos dados antes de qualquer cálculo. Suponha os dados abaixo:

prec_anual_comp_rep <-
  prec_anual_comp %>%
  mutate(
    site = recode(site, A803 = "A003"),
    ano = NULL
  ) %>%
  # preenche com  a observação posterior
  fill(., prec, .direction = "up")
prec_anual_comp_rep
#> # A tibble: 24 x 2
#>    site   prec
#>    <fct> <dbl>
#>  1 A001   1800
#>  2 A001   1400
#>  3 A001   1750
#>  4 A001   1750
#>  5 A001   1750
#>  6 A001   1750
#>  7 A002   1750
#>  8 A002   1470
#>  9 A002   1630
#> 10 A002   1300
#> # ... with 14 more rows
…
  by = "codigo"
)
#> # A tibble: 3 x 6
#>   codigo  prec  tmax   lon   lat   alt
#>   <chr>  <dbl> <dbl> <dbl> <dbl> <dbl>
#> 1 83931  1492.  25.4 -55.5 -29.7  121.
#> 2 83980  1300.  24.1 -54.1 -31.3  242.
#> 3 83941  1684.  23   -51.5 -29.2  640
# combina os dados baseado nas observações dos dados à direita (y)
right_join(
  x = clima_rs_tbl_mini, 
  y = metadados_rs, 
  by = "codigo"
)
#> # A tibble: 30 x 6
#>    codigo  prec  tmax   lon   lat    alt
#>    <chr>  <dbl> <dbl> <dbl> <dbl>  <dbl>
#>  1 83931  1492.  25.4 -55.5 -29.7  121. 
#>  2 83980  1300.  24.1 -54.1 -31.3  242. 
#>  3 83941  1684.  23   -51.5 -29.2  640  
#>  4 83919    NA   NA   -50.4 -28.7 1048. 
#>  5 83959    NA   NA   -53.5 -30.5  450  
#>  6 83963    NA   NA   -52.9 -30.0   72.7
#>  7 83942    NA   NA   -51.2 -29.2  760. 
#>  8 83912    NA   NA   -53.6 -28.6  472. 
#>  9 83964    NA   NA   -52.5 -30.5  428. 
#> 10 83915    NA   NA   -51.9 -28.9  472. 
#> # ... with 20 more rows
…
