Análise de Dados Ambientais com R
…
Com a configuração acima, será impresso no console do R n = 3 linhas do tibble se ele tiver mais de m = 15 linhas.

nrow(clima_rs) > 15
#> [1] TRUE
# coersão do data.frame clima_rs para tibble
clima_rs_tbl <- as_tibble(clima_rs)

Para restaurar as opções default use:

options(
  tibble.print_max = NULL,
  tibble.print_min = NULL
)
clima_rs_tbl
#> # A tibble: 23 x 5
#>    codigo estacao             uf     prec  tmax
#>  * <chr>  <chr>               <chr> <dbl> <dbl>
#>  1 83931  Alegrete            RS    1492.  25.4
#>  2 83980  Bagé                RS    1300.  24.1
#>  3 83941  Bento Gonçalves     RS    1684.  23  
#>  4 83919  Bom Jesus           RS    1807.  20.3
#>  5 83963  Cachoeira do Sul    RS    1477.  25.1
#>  6 83942  Caxias do Sul       RS    1823   21.8
#>  7 83912  Cruz Alta           RS    1631.  24.5
#>  8 83964  Encruzilhada do Sul RS    1511.  22.5
#>  9 83915  Guaporé             RS    1759.  24.7
#> 10 83881  Iraí                RS    1807.  27.1
#> # ... with 13 more rows
…
